Step 3 Project 1
…
Below, we read in the data and do some data cleaning. We removed some columns because certain years had no data for any countries, and there was an empty column that was created from downloading the data. Lastly, we renamed the country column.

womenPar0 <- read_excel("womenPar.xlsx", skip=2)

New names:
• `` -> `...1`
• `` -> `...11`

womenPar0 <- womenPar0 %>%
  select(-2:-8, -11) %>% # removing columns with no data and empty column
  rename(country_name = ...1) # renaming the country column
womenPar0

# A tibble: 262 × 25
   country_name   `1997` `1998` `1999` `2000` `2001` `2002` `2003` `2004` `2005`
   <chr>          <chr>  <chr>  <chr>  <chr>  <chr>  <chr>  <chr>  <chr>  <chr> 
 1 Afghanistan    ..     ..     ..     ..     ..     ..     ..     ..     27.31 
 2 Albania        ..     ..     5.16   5.16   5.71   5.71   5.71   6.43   7.14  
 3 Algeria        3.16   3.16   3.16   3.42   3.42   6.17   6.17   6.17   6.17  
 4 American Samoa ..     ..     ..     ..     ..     ..     ..     ..     ..    
 5 Andorra        7.14   7.14   7.14   7.14   14.29  14.29  14.29  14.29  28.57 
 6 Angola         9.55   15.45  15.45  15.45  15.45  15.45  15.45  15.00  15.00 
 7 Antigua and B… 5.26   5.26   ..     5.26   5.26   5.26   5.26   10.53  10.53 
 8 Arab World     3.75   3.46   3.62   3.77   4.62   6.13   6.05   6.69   7.04  
 9 Argentina      27.63  27.63  ..     26.46  ..     30.74  30.74  33.73  36.19 
10 Armenia        6.32   6.32   3.05   3.05   3.05   3.05   4.58   5.34   5.34  
# ℹ 252 more rows
# ℹ 15 more variables: `2006` <chr>, `2007` <chr>, `2008` <chr>, `2009` <chr>,
#   `2010` <chr>, `2011` <chr>, `2012` <chr>, `2013` <chr>, `2014` <chr>,
#   `2015` <chr>, `2016` <chr>, `2017` <chr>, `2018` <chr>, `2019` <chr>,
#   `2020` <chr>

This data frame is in a wide format, so we used pivot_longer() to pivot the data into long format to match our democracy_data.

womenPar <- womenPar0 %>%
  pivot_longer(cols = -country_name, # keep country column the same
    names_to = "year", # creating new column for years
    values_to = "prop_in_par") # creating new column for the proportion data
womenPar

# A tibble: 6,288 × 3
   country_name year  prop_in_par
   <chr>        <chr> <chr>      
 1 Afghanistan  1997  ..         
 2 Afghanistan  1998  ..         
 3 Afghanistan  1999  ..         
 4 Afghanistan  2000  ..         
 5 Afghanistan  2001  ..         
 6 Afghanistan  2002  ..         
 7 Afghanistan  2003  ..         
 8 Afghanistan  2004  ..         
 9 Afghanistan  2005  27.31      
10 Afghanistan  2006  27.31      
# ℹ 6,278 more rows
…
