Project 1 Checkpoint 2
…
#first grouping by year, and then summarizing the proportion of democracy, and transitions in and out of democracy
summary_data <- democracy_data |>
  group_by(year) |>
  summarize(
    prop_democracy = mean(is_democracy, na.rm = TRUE),
    transitions_in = sum(to_democracy, na.rm = TRUE),
    transitions_out = sum(from_democracy, na.rm = TRUE)
  )
summary_data

# A tibble: 71 × 4
    year prop_democracy transitions_in transitions_out
   <dbl>          <dbl>          <dbl>           <dbl>
 1  1950          0.237              0               0
 2  1951          0.246              3               1
 3  1952          0.275              7               1
 4  1953          0.285              2               0
 5  1954          0.300              4               1
 6  1955          0.295              0               1
 7  1956          0.304              3               1
 8  1957          0.309              3               2
 9  1958          0.333              6               1
10  1959          0.319              1               4
# ℹ 61 more rows
…
